{
  "openapi": "3.0.1",
  "info": {
    "title": "BFF-Service",
    "version": "v1"
  },
  "servers": [
    {
      "url": "/bff-service"
    }
  ],
  "paths": {
    "/api/v{version}/property-energy-data": {
      "get": {
        "tags": ["PropertyEnergyData"],
        "parameters": [
          {
            "name": "longitude",
            "in": "query",
            "schema": {
              "type": "number",
              "format": "double"
            }
          },
          {
            "name": "latitude",
            "in": "query",
            "schema": {
              "type": "number",
              "format": "double"
            }
          },
          {
            "name": "version",
            "in": "path",
            "required": true,
            "schema": {
              "type": "string"
            }
          }
        ],
        "responses": {
          "200": {
            "description": "Success",
            "content": {
              "text/plain": {
                "schema": {
                  "$ref": "#/components/schemas/PropertyEnergyData"
                }
              },
              "application/json": {
                "schema": {
                  "$ref": "#/components/schemas/PropertyEnergyData"
                }
              },
              "text/json": {
                "schema": {
                  "$ref": "#/components/schemas/PropertyEnergyData"
                }
              }
            }
          }
        }
      }
    }
  },
  "components": {
    "schemas": {
      "Address": {
        "type": "object",
        "properties": {
          "street": {
            "type": "string",
            "nullable": true
          },
          "zipCode": {
            "type": "string",
            "nullable": true
          },
          "city": {
            "type": "string",
            "nullable": true
          },
          "municipality": {
            "type": "string",
            "nullable": true
          },
          "canton": {
            "type": "string",
            "nullable": true
          },
          "geoCoordinates": {
            "$ref": "#/components/schemas/GeoCoordinates"
          }
        },
        "additionalProperties": false
      },
      "Boiler": {
        "type": "object",
        "properties": {
          "heatProducer": {
            "type": "string",
            "nullable": true
          },
          "energyHeatSource": {
            "type": "string",
            "nullable": true
          },
          "informationSource": {
            "type": "string",
            "nullable": true
          },
          "actualizationDate": {
            "type": "string",
            "nullable": true
          }
        },
        "additionalProperties": false
      },
      "GeoCoordinates": {
        "type": "object",
        "properties": {
          "latitude": {
            "type": "number",
            "format": "double"
          },
          "longitude": {
            "type": "number",
            "format": "double"
          }
        },
        "additionalProperties": false
      },
      "HeatingSystem": {
        "type": "object",
        "properties": {
          "heatProducer": {
            "type": "string",
            "nullable": true
          },
          "energyHeatSource": {
            "type": "string",
            "nullable": true
          },
          "informationSource": {
            "type": "string",
            "nullable": true
          },
          "actualizationDate": {
            "type": "string",
            "nullable": true
          }
        },
        "additionalProperties": false
      },
      "Kitchen": {
        "type": "object",
        "properties": {
          "cookingDevice": {
            "type": "string",
            "nullable": true
          }
        },
        "additionalProperties": false
      },
      "PropertyEnergyData": {
        "type": "object",
        "properties": {
          "id": {
            "type": "integer",
            "format": "int64"
          },
          "egid": {
            "type": "string",
            "nullable": true
          },
          "buildingClassification": {
            "type": "string",
            "nullable": true
          },
          "constructionYear": {
            "type": "string",
            "nullable": true
          },
          "buildingSurface": {
            "type": "string",
            "nullable": true
          },
          "buildingVolumes": {
            "type": "string",
            "nullable": true
          },
          "energyReferenceSurface": {
            "type": "string",
            "nullable": true
          },
          "address": {
            "$ref": "#/components/schemas/Address"
          },
          "boiler": {
            "$ref": "#/components/schemas/Boiler"
          },
          "heatingSystem": {
            "$ref": "#/components/schemas/HeatingSystem"
          },
          "kitchen": {
            "$ref": "#/components/schemas/Kitchen"
          }
        },
        "additionalProperties": false
      }
    }
  }
}
